name = "MEP: Revival 0.1"
path = "mod/MiddleEarthProject"
user_dir = "MiddleEarthProjectRevival"
replace_path = "common/buildings"
replace_path = "common/cb_types"
replace_path = "common/cultures"
replace_path = "common/dynasties"
replace_path = "common/graphicalculturetypes"
replace_path = "common/landed_titles"
replace_path = "common/mercenaries"
replace_path = "common/religions"
replace_path = "common/retinue_subunits"
replace_path = "common/province_setup"
replace_path = "common/special_troops"
replace_path = "common/stories"
replace_path = "history/titles"
replace_path = "history/provinces"
replace_path = "history/technology"
replace_path = "history/wars"
replace_path = "history/diplomacy"
replace_path = "history/characters"
replace_path = "map"